522159529
1824874
25497297
8982834
2542492
407
2685608
34037
1358391
46745166
4561
654614
752766043
892983235
2378
6555
1863628721
17051
28953699
331367092
306573348
532408273
16846
8613966
18253952
2946492
1149
116725
856021
781
292814
48679
64018
355127953
34136
28690
12035
17729880
1387905
139232
3047383
542
32612
485
325727
1915
3032
5403186
3305
12497422
326932
131363
214730
93732
66037
4038296
920290809
110083617
105404031
13280222
3483919
18579
574714
16831
20901
757355
9750
308128613
801467
497630
7600
2128657
4891195
64642330
92081
36580885
22951
916459
11749684
71204759
3502
11298
1693
788664
1056311
16520478
10454295
3699
437594247
5222640
30811
53491558
3743
39136637
10914721
2003021
49443
2155
37242
76480
62392
31294509
2444
122480
28094531
715619269
138
6040773
432664
3092585
3877439
112198
6261662
47096148
115308373
21703
170935
714785
605265
12955
6064
851692
588263025
33500950
5303406
6443
16921
167900
41282
245414339
115925745
3251
4165
6421
3120
94875828
146352
30902653
6654456
10551571
12906298
6571301
1702423253
27668
109483
11441
13985
1272910
537248
129853
159751
801300
2368623
2227009
436052
261355184
2795
3796
198201830
705239
135793649
11287336
57416
1385434
12913
5020
17878
2554119
3607
95897
1356
108384804
2388897
9365190
26425608
12965
6280608
173836
3028722
1694002
11947817
1273136203
266688254
403
290
312150356
2737
215432652
13948522
1080713773
148289
88588881
234417
5171999
2727
8562
340143
70822
78577399
10757
61800
687523
181828
13467846
829815
1596
3388
2352428
338499
5323555
1045080821
15854748
66518
33139
217556
653315894
634112981
4520
1303
24897
1229245841
2840
228
2242758
1702773
192000
2296
2896112
1042110
1623224021
1413
44602
753624
39266
1790333
6603
17489
53160938
80155633
4831010
16801549
296828
612060
18094
723431
24026145
2021500919
58284909
45404
2511
160081
32217
717594
1716
6146694
9276
1077599
99564
127405562
851352111
11463045
6827
730959
50050480
770
8975185
11795019
19092
124578925
41047045
4459809
861387
95926666
953203891
143469
2617608
226592
2193077
311466
3865
8143164
23555
286
158941
1795
20675
52079
2140803
1018004
27909
294164546
1325516
1211694
1931472
114946560
120459
20768
466
30056
216065
495830
675979
394801
562483
1403889
407011141
7987
652453741
838
14074
370098
243739
1657646
443
3742
15820
11297934
49713
61626560
18993431
180625
12381904
15235
27867705
879451
32084160
2108
626179323
4931300
1175
36623
864993
190326354
2444598
470334
1242121267
991212463
595120
7853
20753
45071
5327260
84957
711069
217663
795094
2111581
3336
64764244
261120
93216
171199423
2470
40322
425
6530766
34696
177522
516847
27514021
21569027
169554
122392308
384966504
14856
587905
436500
293334230
124713
766561469
3921454
160331784
61771
86515560
42609642
39149042
175045
28357
176783
6009
108163828
1168752
1127106
9849230
138674
18727
106678
710274
41485822
332200570
134703312
2081819
54578787
2505
6894
312638
151059
6211
4103
1781315
46004
15550
2514325
4673460
12458
9073595
503
1350911
101970
15644
79415
547893
76807
348606694
3582832
8422
365797
97515714
860872
382890
248786
10349
264660498
43924688
6714
1617
6689
84244
11175
29671
190
890459
258565
32323896
2016
90972
161157
2104
1148
958705021
23608466
8328
57531828
380379
1911143
1122
5132876
361057869
18411053
719012
148648622
20659
538
9842
17898
25930
4462647
13087
6030
64259
1446
528730927
1558567691
263631
284313
3665033
51640
93091
1613211427
850455937
56111753
25517
74115
40130276
208676
44144
5418433
625307
8535870
2873
6130411
25042363
4685
7582923
141951664
155931
4178
40337
1371398
123029959
1828
832495
15434022
1267595
34344
93231
3953
3417
124951334
11240
260484073
2692
65487481
179316
85079604
503285
4480
96936920
152302
562438
1043172751
123972312
100300885
1258
36126
4089828
496256000
104324
281648
1129366957
4529692
1864912583
108315
1296
1942757
23070
1079
175797
331843
891772
644
223182
45554
8069
83747762
20155
21901
25928
69131
940191029
3254
3679
561341626
491
1113457
54117
602156069
574
2118
142827
45160998
13797185
1683723
98799
119311670
91469
168923333
4209
29591479
97305848
128871517
3842
5455
225750399
9116240
2186119
38747
1731782
502108
35621
417282058
105887
460861
76415
54809
46449092
55195
781738569
369489355
149860
30820
33391451
7417725
2009504
200840
117827
2063923
2645
519616991
63524719
1679477003
32159
1090071
82074550
11378
14350
461355
7038
73035627
42489082
1892045
104522
12696454
47188
1174991
61007
19451
13455967
28787
4778823
10858
5297
29057790
19631
10548
2060809
195903
12630
16361
74076174
8417
880
611146
99906977
5548575
765729
1848340
7879894
423369623
2450
52104
9585
8427
102208
1005295877
53244
8618
1805087873
772743
772872
2336
335886
22768
2874
838223
28085
49598126
2068951343
919642231
6114
875810
7733
631515
1381224
20634
1937441563
31504
199140
6073069
1747197367
17726040
85800
4928464
68253
896
6198
361051196
83307740
1071955721
73789
59132
120846997
230330598
362599
953612
572
63958
1574781
410511
7810
3466
111549088
19969
6637
1304940
33518
543858771
454470
121191
1555342463
10124
2117
2484
303577644
1270973
90270
784756043
78572
623
328043
377
152390085
398
2730
559143
32882238
2008
49010
72292
8701
8704
501929720
96902809
119771
55599
282193921
941101819
133142
199034759
6197
3554465
68423802
151866
20166
978
13607
171
17814
1982644801
3963
18698511
19782624
213918786
3439447
335218068
86853004
7014283
23106
49032
13220
1194756
14365644
17389
2123906651
60675562
14930
5622132
5487415
14056569
683309902
884664
242199
59814
1178
12292
54382
1718899
353260135
4683340
384275
21602860
3160
153988
88664101
2923
466207
68947
14538
3465
4442681
54399
315327
383423
864171
5644644
8835
223441237
626382
3577
166765
192182
25155254
124125
68549603
557303276
620499
4130405
5439826
498768674
4479536
12599
291242
17818
959708
13195
6630
25856
362164
17170
1293970
367558
92287
2413470
141833
28184
81848095
454599041
56359
3869209
276744476
22199448
33798
7630
841397
87503
77091690
660
11293
1386715877
6230
227960
108809766
2142
510356
39332
632377879
886
166581680
212081
3081
29924092
3296226
797072
370
2692
15842
23641637
70610
629790
93233
93497
400524791
7721
18760887
19019
1269
11083
10384
22611290
124714
26453197
2208526
5094654
23186
67830650
105605750
550759
28399
21225
788045
5789
660346
1274908
5029451
34521437
75999320
91629
512953
1666
4235
160861
264834749
400484
486058235
271310
9912659
340745
385632
43958
3545748
3442
80196593
31503
329332
15288
131635
204744839
217143
15449
482684
82081195
6197870
250047736
143565
4658
29595
239019
247
3578
821176
243711474
672500
4199
30636
627064371
1272
195869
99486
41942956
1556288147
10059214
19993
14811
1616982
36196
9395
3726
2096
2203506
32944376
561612
22978067
14342
10555592
28250778
7549
11004614
520799599
15145761
544778
1261019
661598
90379
2936
8371090
2333
1194808
1916065511
32687473
2693
1324870009
3005
14415
14397
3796
103454465
762240253
136506
70537325
258939
4939421
101282
491018475
9097
80946
69700
37956569
9505
23055
45036171
7390
16681
226066873
1631
42037841
25579467
5387072
934
31338300
558877127
4327
10984
475
142417
13714784
36174
3326010
12087
12053
1518
611710
70739
6708
7075
8483
4558243
17168
2514
2726514
824679
548896
2182
294540153
47825
21259
23663499
74633
87453
658200
263160
7935615
3874287
54802816
12799998
10788
484138382
1854387
21801
68106506
991733
150606
736473277
2818657
6180
120430
23320080
17814
14807
462717
1092032
519
35835167
368970
5687
204230
19968
64006
33276
379725
1528381
27640
3574909
3306718
1500036019
468876
177647
19647
166631
2213063
3353163
2080524
91540
351
76966129
1386
683493917
10574642
5509
3493911
47701478
38891674
86915
5452
8215
21226453
7000
748721639
213600
9903836
205
588074593
35656
66136
70710202
126514
42673
125829
12755088
22300
11839
59948
1780557
175703
5598
100773
91135
23272
4524710
1759502
705291
129430
1905772331
656
140931
3668
1330
12706834
44755982
5625473
20088
4592740
175584
479737
3125
111083
45325721
907268
68787
28504386
1171182757
119751378
247908
12479
53555
42453
214173710
357823036
13020223
28799599
40991
3809
15533
162238171
1090
13506
3946
780276
74040222
132430
268343
88220
35049204
13831355
215552
93952
1229
347063278
785
260868686
1725660691
51556
5146
396020
4343884
93247707
26756
728571
44518
6145
40027
4527
265691
6099
664120
7389
66139891
7271264
60607
8528583
1755157967
31955
128526
1419127
8165
1356535
181465595
546031
32143
89182
138405
4021
43695741
13808
1447001641
305174586
2748
478412
22615854
33052011
685385191
67929
1883072627
22614097
2283161
11188392
1017668
145079558
1193140
60052
39274142
1984
1314
77181
7261979
8129
162009
8167830
1006802
380706
22989372
14636
1126916
92343
54240
2293
1962590659
31290721
25595355
10904692
71924
33403
266911
26428
507506059
954
467633602
1247594
10101
73239958
91138
10206711
264192
3662
31786
2420
200308274
28138
271595043
3177876
685952
48465
3058
1824520963
8878
500098
1579
4831
19154802
1928
88461911
1253
1045
7041
53474
18362440
7958
92758013
655462
6849
1730928
643072
86970
130194
125925
5405279
2633
181168
211254
79401870
636890
386
43176
1008374
1382501623
52685
765538
1850
2140251
135890314
74697
1740
1083084
277092
1529268
1283712
5439
43043
47882
91243607
287
1375
9711234
1644973
73507
1672
46625
7791
362656
9797
3731590
5681
488557713
128304
2077339471
17677790
213939
1005780793
7610
10267627
2270
136798
5687
18198627
1120076
14219
171993137
2110
50905
156354172
11853891
64657
131862
1110
990067103
1550855
391696
475029
19642
97376
111617513
59408
542946
153882
27693
529
340
1721
4235
1763
3462
64302
17055595
7844
8624
1180194479
1564324
1161461
15355
37030
92479
6210524
2653976
125212
2046
463059
16043
4232
3991914
39822611
3893751
20699
112360
12716948
18257382
667972
155559
34950551
183952
13607
5764
5888346
613
706932
73725004
70406818
34528360
7180
4329856
1471
3954342
4664754
112026
20935650
10310
228282099
39293
1028851969
17091083
100931
73736
14379665
842866
45314
8633749
11225
2848946
10706
52399
108515091
3546
36397994
388852203
6330
1921718
1988
136292
1165
543814671
5725184
28749
20658478
19280
469524
13291
87417
12104
5637
15937
1041390829
162295966
572654
66632
4836819
592151
317486
19718825
32973
42593722
411294
49999
88050630
17505140
731262
377624913
143661
17453
2285
1379
99256718
1412319089
225756006
4849
695114926
9655
3822
482474
193585
505
732820
401
24299
206983337
1617195779
3153942
188261705
9089
10534
223167
741453
144363
21572
130469199
18741
841405
226697
355165
1678
506651
27867
238978893
8364
194039956
49699056
383
20521183
1092
395287769
3163658
4207623
40320488
196885910
16026
6229
16958281
573224
22252
301628012
2290
91432
4390663
835139
31322
66190620
11520984
11966810
4475426
395735
37719
107203855
757272
867915
12711210
245469058
104758
465481
32997
8201
2464619
328085
127578
1196
40736261
3926777
76299
25239708
6550
6413
1310930
18750845
467456
31108877
279867481
16509645
449954179
170400
343605
16834
2517790
412113
37095
414577
14984358
876222
136970523
1634366
82643
16169576
21872
10244
1091974
9602
334
540657
8061354
289272007
3258058
376957
4298
552793
3770
45418669
13024
613528550
125274
1896497677
5112
1462
32015919
2211
3540
6441
156828
98985
377633211
88912086
24767759
465994
338487
1865379907
56361783
1158
1118
417235760
631628
511067
569728
1693769
42580137
3845548
56446641
7639224
2612214
1792998
116026341
16607
672847
278
29202956
41279
28535
17751
4740
1182393841
6497
415142
18897
473
11387295
342437
50466
130676
279076214
6109
7894389
203382
540841675
54779
3952373
924062835
1191151
4682558
353874
5222276
388557740
670423185
350348133
59534426
9364
2295
55731
1913960
2056743043
2815
194451499
99234
511
151812
15101
89385
2897
3810
10049814
2431
675664
951599
3435
12014849
2277
4843228
2881
98778
21097158
2241
4595
119392
48293606
7500
1936589
23250838
7253851
864934
9217587
1940332633
25821484
3090
786347
197595
1782
9027
74319258
2920133
2374257
7428
1294170
774648
19310
3860
1383
4326
1095158231
2647
82442347
1061917
44969606
67049288
372864
2251
1505115
2636820
15265495
30371
3826
45318
122525
28902
26564532
17447
386667
39334530
89608489
1482916793
119282601
17194
12767651
6479197
1716
370113051
346494
41744217
60232
1162354
54070
631463
1010
621
634344214
1542
69661
86794
1913654527
180794
97807
86500
5645
34146168
31731567
143297
135516
88188
1307
493192
12317
7272
1058735
4991474
7265341
874776521
1269316511
49342
8975199
87166
421836
173863
464640429
140028
198483
53998
181400
1916
247
5039
3329
430028
148250
17800
4414215
44399516
1212486
797068915
3052993
6575
53770
1520172
2144
1637020
6718
17940
18823
1264
386417505
7570276
1077332
494533954
490542
8123392
38909
33823385
50657152
2479
128987127
767
72685778
1418849
1213108
828308693
5184
191469214
277106
3195
205106
1018732
341899843
21297860
80203122
92746
29021
1526285
41975
64874
69156470
28141
620118
36266568
333072
2174
2322137
9141766
55208
839
52455480
72755
1578
3140
27133180
73955
76330
1909
241442788
69389
1079946
1240005
1499458
872
15437914
18913
1917
130704094
35156
504352
2168286
22042
10016
11047739
697580
2901
67847
2778835
3331
12083
416950423
27043
198747889
21956129
20219100
1595542
17661
9837
115
61677
307247
26868250
801705
129581
10741473
5281
82439
84472
1640
2215432
356754138
1399567
439
59164
8334
9738298
31684
430542
316877418
20835
194808
13707866
52508637
1675
37096651
3250836
1500487
641
1420932
905793
685480269
278645
53128546
66160
70927936
1451065
132225808
1100908577
130838
115358
364
16014080
65709
158364
268573
3898322
308929
201509
2054
47624
4474753
495457
32786
811525
4866
5244623
1412678
268662
2145
183725727
101589
1226162
995
13628527
2206
3918
1190011
64038540
3786272
169381714
825014
27273198
226052
18630399
30507696
76523
1391105
1207577
33291054
107911
27988
14158
1540216
55257046
90599
2469451
26674534
1536
10564
218969
974909
45782819
929820
572326
271929
5101294
881
54255
77010399
60179478
1970576273
800
66207674
10836583
29420583
177011
4536
2210
34249229
441956
9873
154919
3808
7917823
2302
488378
30859
10345
77127
513712
225
1368677
1747
644470
25655
581
47480405
59216
929
20565583
66038
25839836
72381503
72020
2110544507
19880
7500
442
1040
90184
3775037
239499
16742
21857460
1409028
444983
22193562
1145449
1662
672879
271161
515881
295692
2033
87756796
3483028
5842418
54516
247888193
1189
143
465918
19823
311008536
21339121
471852
128738
42388274
684227479
54764
84437802
1649988
3820902
475746
4984025
76422
124025196
1543512
192712
3832
4376005
952709963
64327
1339543789
3022946
543906
27717
716
31438
134629
14506
5902550
187757862
953
5601000
2922580
715286534
15440
2847
4600
1741703297
430090
37606556
2936
3010
219626
108785
984
613726
1639341817
1826423083
511
144040
149981
954
368892243
1014167867
192690
1727851
449531
10452
181722
53303
9922281
3483888
5788
1038611
23624963
2005
23825
572879
19861
611196
1844591141
175632114
12547
235735900
2399765
6602859
3397
11777196
242216
43203
8007
7701859
893752
224577
5960
13779463
31569
246
612216
3348
856
6826
47891705
21233890
443370
50548
131324538
2557470
21400
2288
1108708
835626
23349
1928878
185199822
25335
1079360
1845
43791
7013
6683397
1522883
180833
478842566
47464889
764654
17524530
22392
69312
4769
1258159
10421
1025759
36317066
13944
4392567
3513769
20828
44042
5601
5602702
21750
2554
969360
26874
11796800
361692
40711
6799
127698774
26515
2944
778
342795227
119868
14537288
172761390
1575309
31482867
48874940
1198
13275267
537990
50766658
971953
768
17680525
2652
17348
492654
25399655
1359031
3341041
1452
8293
1358
251724390
482240054
132578
8053274
1242840
34203
55929
3809244
108017
48579
47342516
360769
59970589
119610
72782760
714
24472
136690
978265243
1767
6165090
44560
3366565
12793
866258
937258
141754546
13530
24957
77891
819
414505
1580429
710081356
534901185
508107741
75705529
140982
8198
109987976
325873
656712
16129
2723587
22925156
1796202
1755539251
548694
41291
10379
477953185
102417
1092
47675
541983
160546
449142
9802554
50341854
2014902
7071791
4987
629415
912579131
4942714
26766
1928794607
83181447
987063
2058276637
1203836
514976
9269304
447719313
811836045
745801
26430332
1694
555
125826440
216276710
594
565
189751263
828686
3248420
54655
2065226
1031651619
137776874
1616447
771503633
73627
727022237
17010954
15130
6190020
5233567
1768381
89765
28085457
1971670
751786
73218588
100351
98206
97837643
4273
1392016811
829323381
1694
2040846931
33800
27476
1131198
145184427
1277027
475410705
13465616
276246
54144
20695
60976
719197
188320487
1349
652764811
3167698
1895
70463572
876929
1627275
22475
45077
1005589963
1589434961
1644401
137020478
4021886
1699514561
13045
9868166
796438923
68982
1212
28861
630729
1560096
52665
250244
222399613
126988
16253624
13422
1777
41727950
634386
842929989
35276133
659545549
1995952
38334563
13224562
11142
2178078
9874174
359341321
4249
2934188
81928
389586
95655
82094926
216069577
59408
2031319
1021194325
18195423
113743
23386559
48413
12307830
2689430
628371489
9295
2058157
3525
8724
16457
330110
4766
7045554
154457
44755
2606103
57657
336
52005
258064094
191629
19313
54502
1176268039
9425158
307694356
2941870
152939598
347506
1436309
76319758
916931
5589
27609
96596
514758
219645273
390107
2051
23778
164674
340057
70337
8586475
5371
81437
1531762
1037
125783
28539981
1414
676222024
950808943
15501
1294371
14585
30954112
2638718
5170
218106
121246460
30107037
721115963
136075934
214701
801638109
36751
49933800
517814359
1503375319
60346
1892601
100833
224360
47223200
2219601
212108914
19628
13288
1133572177
56909
296373
11275064
9830392
77986
364110
860135
62840
14643241
7294
39075
972312991
13886
422614219
8375051
4286074
8476768
255861
20308788
335105
11353
15102
1254370
186841
4205845
53609
57836
4146
4041558
20171
461
24624
393107
268175797
13857418
6135
29587
1308270
271
454864
11736440
849
2341
1334318561
47966
1956215
15666792
2069514919
497130505
25698
3692
8480
315169
1251660
477
16778
32913
15288440
1487487
230278321
3307937
4038
2245528
50028
3886
508850
79734570
1542
24201074
3418602
6181
6219
28251
194863
11740
47091
65007
126819780
92543
57429
18962
1697732209
1738
2148
39835
859720159
199260
21059
1181633
6295
3439
676177847
474423
1517650
6792484
2242200
485443
96150449
53826
2469320
168238
36903
1457
8699
162561416
557
304752274
43430036
38758173
2009999
244838346
681
274287
559
54018
9665145
25233329
269995
717339079
17339642
13245
1367
50866
305320
19862
614926
6920
14005
9627
830755
1388
4704
49476
25974001
57858
4849
5515710
60518
3460088
11732
220479
253848
4236044
9481
198361490
1043845
20994248
5797086
105558264
13342
2777
2119409
35323
6294775
286125
720716
3666431
72759
46006560
85404
30086876
8795483
1721702249
5404691
39300
6331
4783
1130
3783133
1205249
279173
44053
12877
292246
60229
8936
275557
15026524
79752789
28187092
139075129
26424
133485234
625834723
21562
405515
16763
10408201
14195782
545681
6687803
12425
470717
4187
151506
734498
756435367
2603
1559513
249343
706250
183410
15557937
432590
183195583
31893
109019
29613340
439609
5969018
509
3529820
542073
22251
33395
1706
3138442
594692690
1455488651
31920432
82357
4092990
2102478377
9882
6333
49369
61298
10505
4732
134450
2692435
259310
205944493
66381
4693
9487
12887
143878
278021
8701
53654978
4009
164227
16458
452960491
625866
10399
972
1017335
354314971
397893
4656
23095367
4929916
50453080
62942
3906
31407
167837
36052291
128424
1069115865
25217
970386
47221
4104910
324
1014580
4891
343600
11695713
4284088
897895
10047895
6915651
5568
137143834
3177
7224
1648970417
344
7287
828582
37785580
456262779
71456
101944
33833733
130532375
46115196
366978
132684
645146
18743
2568
105782
120613
13987464
106769
1898593
361995
5154
30346
60508083
311108741
88624236
905014
577936
201350
176427113
21317
74182
2904
7619525
1003696321
36874
1112
23360
4344
21041
255287328
3020184
7208
57443267
1619649403
393563
1765
59723
588586763
39191934
262
1924994
10887
3426204
30887
218403
558038449
45082
66496
683754986
155326
856456
441294
679208
3810184
35366163
44347756
81887
22507
14367
1244
11083639
988236
72632
3673098
6195912
782659223
1512
839955
1045208
134240
260757
5223730
2670349
12659
1996
717053875
709299
20708110
997
1220
22251931
12949
5671637
8371
8578
2537
220323624
8535
18463120
17506
7073607
34656
160807
174324
463344845
4554572
49633649
297947
20510
6025
229005325
33244
304815954
27111
75324736
124212
132887
418243229
970
89241668
284661262
351285291
333556
1908
131170140
65855
25296
615
148399
32998462
401523
17632461
29443
2900702
2442030
439
1163933
118796515
10138
4804
13692
967529
567383
40170527
254017
12558
2140645
183342
459521
119325125
1354071
34309414
3444
76075
13404523
7755
15487955
1675
39567310
106003
4143198
1323425
457096933
104950
382331
216850
13057863
892
50461688
3045100
1990
2850
980997839
7741415
4592044
3549103
2150
295752960
9354
760685
732786
2975
113154
318
4302095
76091
13243
1341334
925
10787
538542
7453
487725471
310402445
510247791
141378
62044349
50334527
1184680
4090
256130
11067886
2352093
7696
2341990
1495492
640942834
109699
1601123
622
837770
9353
101433
25550
23270627
148063
25476301
134303623
3873918
798156
10124944
116121
2221435
5026648
254388041
1544576
182688429
6134090
1164
1479275251
2100412553
70715
1469266
38209
487951083
856578
6049957
150249406
2195542
410754
31023
731
64381222
174011028
11866516
1863
646
9013
36027
79121
2766363
6104178
95513
107987036
665091
371117
3548
72254115
15261211
462851
93255
13383
222228
80220
12971
29209
10810536
8918
10060
32414
2652
12974129
32360148
811314321
5576
161414
34899
25233924
196648356
480400
1044367939
3426142
7565363
19625
1061181
214093
523067947
50150
580
925395261
80054
21394
2999920
9331869
51098
2022
17656
588
735417301
170552
7033600
145438570
1102950
2798796
1538404
59327
111957828
5126
49141
1522
1453534
4388
9663
6740
165177
29108
834
587412
22558
5800882
387562
18087
39067348
9060
1946059
410669227
1573762
36667
247958
2803
124121557
632501
1583816
230130350
510413
532310
6847
96295
2205097
7175
224723
491192
2641
52702
2116
16732
747504
1264
25499
121812937
408389
20980
1214754
7316032
2068233551
3722
1332487367
10258
8928412
9118
276936292
7857955
1217
44060
361096066
5957
2510
4799345
1965866789
13946
497718381
2327414
1881
87976877
60898307
209964
221244
378858673
2103209219
14834146
22938400
677528
65192
238220
38107
19562
22913274
188789
5997222
10895
54769200
23413
1645
1152599369
1045
1005145
284703461
36364
27679
4609
1802367451
16836733
109693
713852621
10695390
8879110
73945
73380925
3490388
981337603
20338
5285
85920
11639221
35964
104218511
176299
1790178
12563210
2607406
774680
299527
2897374
936668
248178
442
346375
2690968
91469
1989173741
59174184
183475
37787432
12761399
14324909
9936366
33960
19825
1084000
1855
5860
559674255
1272740687
1687100917
46606458
6457
100189293
2858
4120428
91752
837663
107535965
1465
88084210
4884
4097592
554
989767
16575
230108973
1229971
23374322
131030845
7455117
543840
51230
18749
190314
3812962
23497
56225
1531526
137543555
87852459
1603
133474219
14774
3581
5669
6838561
6825
17811360
3666603
125109289
579946905
1766586
79540
3796884
2185566
193104175
12127
3842169
72636
4599
140547
14326334
48570948
2407614
85366
16621489
8370
692005
1802530
8681
22990
95905674
25480582
129945
395390
139959735
119948
246299
1127
15234
29982231
121421567
759432801
507
4472311
76135
20731
145393686
9812
20077
6610
12012
49895638
6823
660485
175555
734091363
5508
85664
4480674
185040
9374
14485232
794
13882
1010447613
21000
7584773
252819641
3934
4215
2799
549562
4163
112157027
934196
566
2176
786747
337
6506
120364
14954
431863039
12275041
11176202
43238646
388
815804447
292816
296544
4882
492
639660
208335
2030
64644
5674
14420
3324
2003055193
60141092
1785152
951048861
28160
1937
1223832
1179514387
326
49004
59127
52019
54913
10680
206003
1375134
69100
52248971
39215
6878590
984
1945215469
28767
2718
1902012529
1273101779
334
2157271
63530270
33641303
2608155
14656
18294581
108489
662751331
453
23958
158102736
234026
83636
441831
2017
26217388
8758
31679138
433
1719317
56736
1351737
9200
11340
4609
234429
25246
852673
56465638
303382
641445884
576664
18050700
747
16821
198816
17340
15341
773280
19781
4342090
195677
546276
175500456
1224196
4017
196328
883
1284728
1514021567
373
65333
6557
46121946
260086307
5286
1189446589
288753
29700
8034
119312034
115611
38769
4960
4542
15882823
206819
5338
5422524
465188
1837941
88967
38790
510586
503590
3070
349
969456
586186
1697
227579
11058646
99189
5726
13998847
129552
250304
602914
535014
240892220
2126424679
3016799
1062
49884234
133003
15851
75562560
1927
10280
57265
2359281
4828248
106593
3329927
61626174
39260
13720
7701
39914
24080
729415
266949
60508859
11712
9566917
2199706
24304360
1404
9150
73126977
10701830
255720
85365
67483990
35498
866
16730
18592
32084
255226
695749893
10728
38145
20635
281023728
1431762
33825107
59710
167964
792225
22254
396653
2657423
1560802
8610424
1891037641
142891
25544
5577720
101131
704527
941558
39724
755733
594134299
204901536
354
5999
1214614
21295732
2746
1022123
9045019
70495
66960929
27872
5297665
57859
21802
164138
12195
59316
154296
196731
14768
132631075
424052
9430446
25956
6945253
33461123
4464
154202
57934
383558361
3813449
7302
1383645
1227
135610
16183
832375
88583949
10491780
40081
2414426
357431
29077
4266
89907
6814
30282837
675177
36851
2081626
1841
17692
1212712729
27886
24391
2797
6893070
7513
46150
11128474
80678986
3450252
2836
898209
4113
93368
165180660
2540
1228042
10725
4121
4164
304158
471384
41508
421868392
4689896
1155321943
21534
2709
39535
22176720
15147
394083872
1553481
230145
975
16452258
4823013
920476425
7309
1591889
6668927
5445
636047
372473
35932
20557
2436640
67200920
20612839
49969324
230599722
2019215
170963
15845
5505
5634266
8529
1690337
19862
55430359
2514
970202039
4157
428081
71124
396737516
673588
4223172
404478
58459
593
45324
13891
2722
23817
176083
14085753
1853194
7455
533617097
24164
29024
29609
724648
112451
3729071
4598
1829878
2403
30120
1389
14704
11057
13833
302398
40455291
1658848993
82848864
2839051
1200805
1715945593
905750
2309133
26270
1723
13648
6923
649980641
209774
166894
2251044
148193633
2219769
9058422
3278
8088650
21259228
3502
4697268
6891
995574
185606
219
214282729
1048741
2772099
263390377
83372004
107357
383043
1521
1330197553
7353
79088
2872744
5623311
444400
1266324
568086
1097259
43567869
29356245
21552925
575322
9214
24934752
35951648
173212
137036
1352791387
5188770
32198880
5506624
26917885
2831540
45128140
31686925
1666
1595174
3443
4922758
15706894
157750369
136790
52914000
192191767
2254739
5537
3139
538543219
22152540
24756471
96995964
10293978
190853
10514
41718888
809248683
1645662617
142510944
305136
34683
57943786
12351
2131436
1178696269
1161948
118054
1461907373
62358372
39362449
21607015
5145
2185023
83807754
1975564
700120161
1607632
85243574
11477
4382
2363
2400355
65037
6750
59843
362638
124491
276767
177165017
447455461
3707
16190016
569470
47449216
2214068
467408
5191
11731
522
18398430
76111
19947001
676998764
116852
24381735
2154752
73787
37816
63042564
112621217
592627
262782743
180734305
905513
91994273
13133
29677
697647963
4571139
275804
17384502
8674
2023926031
1301598731
106548367
19027257
3390137
144372810
1939912003
6932
2087
21815
164052
3231839
12597
76062622
2846
24208
1981
2177615
16657443
2020
708483795
11611298
21067
647850
7081
72945
26480963
4783
185156748
1441739
905831203
218352
5717325
2262
10786
202364683
125367
45978
38168532
88619038
1022761
2397413
72530
1011411229
29027
14975
2271369
2104322
709954
76847246
281241533
111012983
130348
1616
1170972
22410
124242
1558321759
2102341
1636087
19814
68185
13812
8217
488065
702
20469842
2195053
55949
654292
67167
607994677
64493
3446
483333481
3264614
984013603
34679104
16209
4516
1018
12473027
1343253647
662712
17642
134960
119761678
132426871
213276102
17516495
31824
201949
2512478
144462594
29990050
2220
79606
4071
70487
1375457999
5870209
221643
2783
7972390
336147
6120
18693
2381
3181387
15439821
29067
100142
126779214
31849
122168178
897199273
1823
3743493
23671299
117371
3120
304864
3112723
63819
365403
17469556
1691450
1682142
81692
1990257
1416499
561071963
24097
475939
60144
484878943
1147487
183304582
5158
18036
3376320
165941
853927
141859
27778
22137
3440
1211574
6733
1762
3511
2636
637539
8477
3686
146472
34179
689826
1024450423
38680
1754
1463553331
120010
596983813
8153
8655614
435692
26502300
8089
245765
165429
31545455
569856916
3907
5007
12126418
34775
244109396
238046
10015
110685
5481
83857
2044786951
239881
5124196
168918994
4385373
995863
1810569
16416102
60778
838508
2705
4307
1789770529
12740
66128
27537
1391226
95928
13881476
14382602
143711
39633
1287245
30137
5177
2040862547
49013
71943
24964
429559
26292
847932379
48444895
33464841
319500
16764039
581892
12827
2115264
48020
6461024
24545
7694890
16436
383556
2773016
46226
308522
1118968
1448
15054
58088
43727
984649
1319112989
318976
2941362
6864306
3335
2611
11329
9483
176824175
891050
16912
257
71141028
1549147
258809
228635467
10040
3515
3817
51778
26694847
13006350
492003925
5236806
1379682287
1993429
71817
3713
4991724
2724
272012
98379
6054
3743723
2339923
4096
1182508651
29853854
81150
449618353
136160
572384
14218028
12130397
175094
678398
116039
144258016
1089789
455544
10776
3362
1216
60335467
375686
16099425
6501564
408935089
444680
9998611
23925
33157
24989
1238777
7363
5918328
68908
4771
91482
226167829
57324
1352403
71614
2713326
2257
259439
480176
12213084
575
5432
43760
42141
5788784
678
48039256
50637
5044
529
291840
96234
124629026
6945
35453
378140188
3634
2431752
4707
3710
7041338
7574707
63076
2178
278129
51214285
3823
40942
1035211327
207786
38052
10798
2020
402367175
366406
12509831
1894312
1914
6096795
1907810
20979
282048254
9184131
366914
308
13792
25229
27865
1131
21084
141295
766438
312332840
306671
1191390
21336
130174953
73396
973779101
1465601
887849
3201639
2115
75091
108800
42948877
4333
999
192636
53016
69317
143502878
185550822
2808
1615
177658
86202200
21826
450056
1693011787
112760
14355
4493
737233869
3905
4195704
161286
2820
9326
20725258
106436
6899686
9447
1251069331
1284
124320
57743
366707332
155943
42220
330697
1144252
1449949769
10709
86115
108090973
59584
2891478
223381537
80317853
13931554
6942
43749
1420567
1874887087
1849008
138866717
21431
35176467
1664
649344
13050
134574
51353
1755
57135
42178834
773499887
5956574
366507396
7756
188304
1808708921
660880
16402135
34858
209130
11819
1142
33693
780282423
46373430
355857
516487372
2662445
659381977
3999
682858
46415
440941
19508
2452004
755682
608668
414121
218250
583545
3029
1287907
255177
232288
99562
283717
70310
1196430
5728218
28121122
7778
3560
7255
86179908
14112
72249836
7091
1909083299
2290
4383501
11419293
6358029
213819
805
411982
50037
37253
4378
69243
208364
596
65255
191764
240991
11665
4089
6379
956817
21553967
236930
2534
3485
397285
156567
32693808
514493
1219348
106393530
33240
5420691
884823003
6439
985915929
258199
22686091
198968682
34318
16541
171553696
6901
6372
28599
162358
37723
13854924
989938
1925525
55156630
23520
41463
560
51921
28862713
13785532
175400
2820022
3998
114343560
38354
3373
1446908
92410472
1721269
144235
120127929
361061
350861
100638
52013
45020066
93096
4814554
20537
341975235
1194293
22921284
1385540
26219
100206
388560135
986
621908
32432
2037855341
54909
13514310
29577
10694542
204222
5970
5590
3480
3830
2987876
5589
25331
38415
1153
120109610
16584877
14604
1113
1059828
107330
99654865
450285
3299
31647654
73564
13024831
393131976
10422
10129
161440
517223505
68342
183738541
211438
73603
89948
1476
41123503
3325389
6650154
4827996
131198
75462
2537
10837555
545503855
347283
13175
380376024
28791
10117
1784620
5801113
974864
1660638631
46362271
1333
77907
919754631
1815420
29365
17296979
1433325
350750
634241
1552358
86393
5588
312138461
323476003
439211662
6462
24331
780313
19457
257
16566050
6404649
342688641
273
7493
31953
397178863
1039
178654631
4953
8565287
4038
14642092
6318
7689
468
495585749
10277911
13758
16028884
37875334
8295545
199967
18650
411994660
3150
203265276
32070
739996
4627
741717
29772
16448
43998641
202804736
147389
649785
380058
1153413
5259
4428
140780
28003
9379
5934126
44877
8540222
13669907
10125
183570
3009
3193
699213
101951491
4013561
546653
117744
197986
5582
11695112
304373
35509182
91069680
25769
845502
9851
1175043829
49905
170211495
59955858
1603173
64949362
521546
2431277
952
17404
8828
6922180
24358
1616450
524009
816921
44772
11098838
174518225
50084144
10711
714565
16135
20873
32747
22528
71156642
20243302
142379576
15730089
384326
63956
163404
23517
12816072
92289
1090965
230415024
143170
1203868
21761
446912
76812
37700260
411169756
7424048
790
279600539
2498
10073127
5280
3674
15851742
104822326
1532106967
146503
100212
42575740
698443534
112492028
30016683
4712
25825
3799046
7231205
1159060
78275
41694612
17591
241717
1695871
140615
94708471
37549
510711353
1325093
76968
834362
707336
2850121
771903
1050636
1879802
4719
51891
5542426
9825
51501
59463
633633532
1817413
105308622
11741
288781
63239
1325330
1400030
840601
56079
733470
3399700
526
1054
14003236
597121
74325
147899
224873
1940729
934347
38353
8992345
2462
56969
4808478
3326572
313491
3056
103860
333839719
2237
32521
47190
465498
17645
22649
99498
93632136
9326
2179
762322413
170029868
134937
479614537
28193
2285753
689
38131632
669970
882373
5147456
30375
16176568
970673129
904271
720939257
136097216
3980
1154603
3603288
579129
1913
1331855221
3351660
372237
209314
2935
1446848
54917320
11255210
214876
70010
236684
229186411
267908626
1831192
89293068
2112270
5162102
812
275238
305767
492392
159067
1902438
14976
3517
24969
11024804
1325009
1031934
49022
333
197610
46526057
83035016
129552
996663077
33049
26447
172215
432303
1576956
78226
749270
135852
1601172
12810
605841107
12047953
13291014
1771386
48445153
38443
4993
60170
637985611
5353
68490
477
3081165
29589
43475513
33006
405310
193838
245
41950
1017
675005
32441591
564893
87578
9953
2138406
14375
1224
104253
1260500
231332
22638499
200845359
5721
593883
49207
36992
34773
4483
30201
60369091
48288
1593574
997
42082
403899
55503
104294870
60517448
433218
1307828
1850462693
74824
2380
26450306
4259
4758384
98680
87839
425601
173657
64848
14640
93927638
160122
24179
562674
4703488
288340328
82860217
20762
39463
81940
16347
18549
30157809
54332790
4248066
132209426
1148502239
2486
318756304
141913552
7052506
48474908
7998056
23896281
107170
2299
1301987
4139336
1906
735558
54254
9815
696463
42962
22492
15243
6981
570767
325484
210567
1068260
1304
2521
84054
21672808
15307076
286581
42145
204854
410415
1106416
2112822893
5404
849
1206
959409991
118776840
51642428
7333
153408
167650
98756
41719
90185197
2830
197770
5874496
1300218
418347
247961938
7976
2980
66206
24664910
46810
24298
1483410
289215226
14606624
532377
950946
2312
37379
1825
664356089
263129527
1415
5815
2550
20731
1173858
962
1980543
1613563
3903
40541376
656
37919402
6829
222512963
12050894
15425196
1421
5174836
23804
2074307491
368977379
135411
4692
34168
1400994
10217
636455546
604474826
12546
60972
28111
18802
51897
7127689
124637688
129078647
80034140
2611
122049
137403
4355287
13948
100196
1958756329
15035
44327
1225
926016
31162
460341
16232
57905463
689896
109676
144844
209771
2558
129948
9464
7404
5271
9330367
10671
992864
64453
215100
202400
161744
879
1794
192996
56999
3275204
232136
5898
79921792
67857328
741039389
40790
1535996953
905061741
187343703
46041
10644
1087978
1850735
18992
1537317
357983
69153
2279296
125169
53807
91484
9658
2788
1627696
2231491
4546358
202449717
3338
441260257
36275
31192807
95215
18527
8615
24523
1131069697
848814
57904396
4535500
56699
20108
107471886
216
14329
470586223
45099326
772136
440495805
113743
106016267
17373151
333047
140566
13644
8022266
203082
13234417
51912
4308
4904
55681
43401
2081
2950
396
16954
19913427
18943646
260556
2693345
47526
365985
73052
7043
38773210
5772
8215914
192320
3706944
24040734
265383946
319114
159752828
276421
13253997
320914
252199
12683
2589
184463
550748
6451898
47106554
621
471227233
2107
17355
35029709
1753019167
778784
14643
6877983
60296
100360
11599
145456
3082
1098545
11962
13778274
2259167
532452
107166170
68050
958
4780
25449
6080
30609120
53932614
70168
37179
27542
277380
5351966
107448
656966876
31671
4790136
55934
24067
13328476
4141892
2405501
479609
26023436
127824
368331327
522894866
3821
93755889
10024222
8665
481988
10463391
11146
122623
7963
2266
3979
265089136
63074
24473246
15551313
301281
791955
9147
183656
740973
9025
3550905
56808405
94360
56698
10770
184968
65212
6417039
63538
495155
1510342
39117
101283
2901935
34947144
1279
393589351
3504
75723
1027
42754520
1692
146811103
109105
455
3213524
1710
75689
15741
385600811
17797
2020
1054240
20601
91011
2108
50325
672953
4428
144034
105431736
62530
2737964
5247422
308
20053
9226
105004645
95949026
297416
5562
2624
11926206
4657165
14819004
26430551
491345
20565
38805306
1005578
1995
1997652
925440
105548
123558
170313
265777364
353860
1075584
9590
120430
44431
690557
18521
25540
9942987
35681
127009877
835861007
193906
10641
130106027
1036900759
5889
26465750
28646
5066
37544
854115
1092
27381
1971
271364
26313335
14881859
113207857
112689262
60209838
42835998
1730185321
556572
744
392219
50788622
143896
452
69716
40532
3128
5071
21725
59469
9571
8853
146661
250470
15749
1801847
35117
33474592
18640
3883265
1802
53062
750735
6090
3336735
5182530
3094
219551609
150591955
6040
75852
5265775
10901
78847513
42672460
5611
14446
155731668
9764020
24859682
21363
64667
15411
1303
464177
125355
24872100
4333
2022
187241
2199705
631609
284114293
5580
65026
409179756
171652577
1833586883
61008
63860
13755821
80716
13523
1884795
204817
17677
1929433699
154627
236257
2998
235137
37614
33051
6266
4602
28195
208905
899534407
85314
5977345
44795
162353136
33834420
19739
31277634
609885393
93266
671271
2082506
607166
192223
1055
16546270
541802233
121466
93841
136246
46672789
18456
88211
207905
6458
164424762
1298046
15932309
171193293
719043
230681966
1241920987
129480
18150
98607
556
905697
321132
56791
585844
70977
82273463
66023125
49889
600426825
7267
15570122
3604612
32991
1227
1632140
53325
4452
7808064
61825174
165879
88692
711847
51669
613907
33449855
141790
178694090
17997
1279277
306071
203846
26451
701167211
217478651
543
331550
952188049
2476
71582048
14155
219840267
3640
65898
340248
83387
10807881
1456
914
732101437
3283
85419533
1021480
271332
430892121
1757
528454567
4174
2517
566
14095
443
28145
15931
11889540
6905
8796
62942
16473231
129821
705764
10702
53164
582472
4279681
34193
3784598
516649
352097
39035
28415477
13447053
101491
188481
3487
70555
694
982944
37158
14588
17757
77216
7317
33067
33934
1500498
65155897
1782977621
13193
382825
79340
436209259
9147109
4445217
24712
9089330
2080
1050
6860879
1874457107
857
16107344
87782564
1727622
1172
24848
4765026
1323155
2770
13075
1753260
33506826
3539643
8049230
49760317
167203
430017
1835
153942
48945373
1230620
108799
453315
254630
13898162
931244
152439932
126073
82212
31675689
439
163198
3949
54399
2744
953492023
101022335
850736
26543
12837
1797
28061000
1662614
6717244
1901306
459593
118714
754269649
56439702
26991
97649400
62409852
5147
118294
144950
6427747
13035
5829
273
1898148
165316
452730
7773
392476
814232
1672044
95535
10596
29926
57795412
75243710
18311
227
638789030
1363045
2145270
151998118
13838
12588660
1173810
612440
1728752713
6841
562068
14605024
145162645
17325338
5615677
55835648
2487
151237836
298457082
1399168
4564
88243236
34444
398189
70415811
103356685
1629210
596497
58450
2708293
27967
10133
8776628
758450
86470
614535
12489
688714
1672150
3158230
784414203
317054
198130
395896
119374275
184568864
71881317
662502
944794
671
863595171
644194
223
1530
4151
713043
251643412
151044
1350913
272317901
432650
61429969
674112
118494
177663730
1698
473943
414790461
117389498
25624
21911796
325784
22437
1583783183
778913575
123763
4232759
1639694
308202
1153523
13440625
19891
10212609
31490
30955414
98440
100621662
13213
596916
6288626
38802230
96888537
117187
62219
1513766
15961048
11098
1572746
904
44134498
1080285
2107
2980
25494
3444500
35380308
37441129
323837812
139962
1221418
62034
384293937
11474314
145737
456937490
1370
659145739
840924
13144697
68104
1514319
26991
29475222
340440441
312033
3915
29984614
39804424
3236
122453508
5724
330589519
65667138
453940
88881
822108319
6107045
65548
134191
449459643
114834742
10185890
961
2860
258717
392624
2738
75575
1171670
12436072
35050
33150
6220
63072869
43574
552268
119583
33678622
9283
17768580
3198206
49578112
1763
523
110706
9140499
1057076
409344
119873
3346
461656
107707176
77813912
25330
249779
295
12557
4607388
475462334
50029
13400
5026623
792746257
21926
39032139
63406321
914
31060
17297
2066631
33704
6173078
9077826
4337
18207
482523
69650
823410337
2673698
4379772
82970541
3016
10357426
11672
1630524583
14213813
91327
78403
2248870
29532
3235999
46650
1887
17020
40918150
7573423
3399
1547395
96862516
18109956
3041919
2626
1999325
12405
3800460
2705
898521259
56111
74938
110448496
14984548
2722
3783725
20460
19386
103279547
9876
7975
143364
404105596
120506
3462
827364
4966
39045
177647
27014
17775642
4206
47697
1808
1923983129
86194
58073
37876
479885
6106777
853
85217
20590166
4455
317632
1318682
235285598
26669552
426349
65150368
18271
1861
9826
185013
418998
20351
12017
2632
14884629
2354315
256885
3495
402490
87581165
92844284
226061
4456781
40977
219102
271584
18609680
75368
1288689161
374105668
47836
7949331
951110
591232637
1298137
219925
2118180
7198
15667
32879
193739
3011
37979
11704
18175
142496
111059329
70890
156302
322978
522900
1218321
48400
72957
380883047
67439
24257
8756535
2471702
35145369
61045
3039
10420
96768
373170574
917985
57618
6347
7009
192122
1052473
6527749
1057230
1329
515390
22446945
3259
244063737
23467238
136615819
4990
3883
18491355
968867761
1762
3698040
2116
4093305
431340
422098
222142469
14203273
19477735
24975
17810
377
126974192
6901879
23174174
571785
2130262009
89768166
1197137
20454
24549840
295875
1212
3681
32828
215767
82991
3851389
539443694
2327702
2965802
22396
58372
673947121
21488593
277735
194884
723787
1065
119490
118870
280830
1229191
89320
2441
5345
11393
2733111
22042
629944
632428
935735
3344
24150
1832
244887007
29772273
187995266
62554
31920540
35890
377293
222987
17510347
1015130
5334
14116
695856
18434553
21643
134493591
119924
14286329
5184
72468
1582405
5477643
4665
47299151
186701
10775
91114
1359
1353288
1096
202748161
191691142
16799763
256712
3601370
11848
11336913
21923
315128
16794
65667
2946
28005
22709
3683
2404956
1857611533
1098160
25166
143788085
11825
10938423
1116
24699516
15431
18870834
1217
15885770
1415003
5295
156344906
142189
21403
2099682643
270755
2010
11710
1829233
4858
85354584
52091
85285
113500995
32367
28883220
790527
118252466
1243
688838
77669
330483977
6282
13528
1913580
143850
71446645
409522519
39159
46918
484716
899573
4045967
31138
3316
124663177
144919
9795
71127705
458
624032
33394022
3044
26847
77056
24714
27018
29544
85740
4956035
55042
12393
38230755
1735131
8781614
10328
140153
9564
1174524
363934
1049634
349180402
313734
49848
46766662
849486
62775
16436456
888
75216
20647
3321
131034904
430634749
7155
8311563
37527826
74007
83993
219652
7882
1100588
390
4317578
4654629
4094
325125
129441
255203294
952919329
9301772
69448708
226718
895
4099
88059408
53309
23765
29441
7964
44754612
13968
3538804
2173
6942610
126680
3575
13705535
2950563
6059359
44191926
20589
29842
132476
95920348
61667797
3245133
9122
1367271
12885041
7200
9106081
4472045
6480
797092
6991115
2712875
14466
316557546
12399932
1291063
140185978
10316
175479
15332685
8800
32093891
627288
198086
22212
200021
157653
6633
6396974
777
11327044
2063822689
22896650
2970
18379
463080262
641478
14823232
362897
8404
2993370
94810
1742
112888
168239
13386750
810
34903
150951186
1140
2024
753
1639406
43734762
63767
70106
315454678
154428
99514
873699643
76596
15295554
18168
688567591
809180
109808
30113
15226867
63137
2444
17622360
3121969
20438
22566130
2018
1636
1370732
738642049
4311587
2086412719
429260
38453
340972
1830
449363
11467
19315813
2166
2825254
98554
41301
999
883495
7512687
19688
290881
1105786
70495
13414
5357
1278804691
101188
31744534
2350557
351170
27783
1114399499
241778
12591
2796
77937098
234
109138
80802
25128404
506316
24979
14861
2695
368753
122549148
53255
2698
499641
467
19801
1790211817
4122803
821
6741948
372881836
1568176
63970
2946
88748936
1524216
5351
347269
19807
36207
62603706
97475
837610
9996693
1311421
9053
18426
1824834317
2534
95779
1510675
26000726
2377535
354130
138099
3411
539172663
61538282
3106380
78653
10039805
17382
145163
22796166
156783
40494250
1865920
824335753
163951191
1749
27932191
1517372429
492035
10483746
53639
29307
2655371
8802170
301636068
463759820
1891640
122163
33575
2046037
1743008989
133342
1407998461
673870661
36197276
7800
77972216
31426077
9147052
9332
8681321
3865
763078453
809754
2746641
22610522
98735186
1530
139338
92271
36382
1430
56766890
32408884
2131083
19900306
496
114417
773656
467601323
13615
3836
2045
29233101
20082709
17511
1351430
117039
176684
4037
1591
59089
40975
36199343
10537
920389
44981
586975354
880989127
304209
380
65765684
96659
423196703
2340463
24358295
1604361
11082165
4743
799603371
7200
12606
7863
771674
7773551
67359270
4234248
86332668
177694489
6714546
6046089
557268
13570097
317206948
38856098
1180676873
80785
2388
28544
790770143
16590738
14137062
22160
6109004
1795
127383
19409243
9040
1046725351
39068147
5785
105957039
14462
16978848
749969
976865
123850302
11907
135306572
689940
2090801723
41368
26710
775384
2242
81547
636686
1064550999
2731260
829
2200559
472018232
7918118
16838
145063
23335461
29894
3036
413913
4288
112654
424832743
28987433
10570
43504583
4075
7501
29133578
241437
9113
346240
65078
34728449
2241
139361
22390
357286101
70682
6825738
3179630
3500421
35787
10395798
6978
22522
227532985
203808
159863
13129918
7093822
50626
89144
16295940
18794
26094784
102638300
608629
657505
14030
16008
604611
91551
43512828
22316
390
98458
7782317
15302
7798
131294
201096
5670
79368013
1407205
9772
2462
25197166
4896244
118430
2344050
6294210
4411
25509029
17452749
19876048
1990
20199
13869922
44473
82807
51091
190262
646417
690172
336702
842394
594382
7905
28090
899736
254950753
128058
445075
125992
44292234
990
171520893
311013
333174
2830683
21960018
8834204
8656280
272195
24938236
128473
37778
37006
30359
14571
273653
2449
382
570176
5147
1747270379
561
84769
172119
3689
3264
595324
5526
53772969
6542
3893
9090032
1105930
62753
1331
56443
1130298017
28849
888338889
2596017
67191832
197844
164075
10195597
194982
48734608
3696
44494858
1599455
257861
564
629879
1163544
219053
8356372
65455740
31956514
1295380
3689232
48513
2618053
2096777
1541
15533668
943372
50819
2571048
802280563
66989877
3550
18989
19098
685593
976920
123815
6824430
109510127
12382806
88811750
2097
12324184
789099
165830
3094
327674707
36404
1331
155320
29974
3145
2621197
21693800
1896957493
387
3582
4474751
4740737
8081
383357
582420
201250501
17376566
136273314
116105
9763599
24215857
162324780
736128
6652233
543054
15851
1200297
1948
1382
135046037
75751500
757543289
9379
25262
546634703
43810
2912
4358277
34614316
6697
19122
3911
1910
9155
583657
26764614
257017
690427
1892643
5610
9936180
443169
36920294
393
3745
27538
84954594
38579
84425343
301188780
3771
3916899
81247
4846
6398773
43605
20932765
5487
1973
2724284
1144558
1618217243
368671065
219424
417384
40882
47364651
765152
42481952
442
101975
143610083
9315977
120359278
3235
253377114
41452
1881014
3119
1254
8757
5029269
3236
28518415
67839
76612
4285633
34006
681395
353828104
2689521
56200
154984267
6457328
43871664
311995
177743665
3139856
69390
6347
39554
727847
3723
2465
430521
26810822
662359
63492
3696
6313973
21689763
1617
69482
58410450
8897
9280110
81475619
1645472
41063
2269104
20297656
1186068
12289
2011
34211
1418702
1226
454834
1229548469
4611
3334
25599
110808
2639946
19302894
706356
24871
56849870
226
14828764
1208
24316
567734
1853260471
4812
6468
25557
3283
259036
21102908
204701254
78964103
20889366
266510
1174253
15027
632460994
76351
18705
3600936
2045500
14598841
323
49214
1166039
126152445
5443386
1261
185786838
4004244
9542
4232438
23691
2274499
53498468
36312588
8501
217937
536774103
1591924021
1241
10784
196372
36588870
220073918
24336982
465223
31551
450750
1842982
20396812
2468167
3939
7754
144828458
12797
42997
487698
1026537861
13247477
2080908359
6718757
30533
1396678
220434
151710
264431084
1938708
5607
1199178
4153
52841
100911799
480
1126850
8907
3623
3601241
23459
1165869791
12997
32360
614397
733980223
1014150
225884805
15488554
1789835
420420
3261145
7815
2068800
200072
1881
168466
219516
106677266
4099
1300
32526
220018
8933
269646
5051636
27577
934
1246
92128070
567768079
192126283
76881918
510652
859012417
1511
12862797
4660783
136553
9649429
3604621
1321665
813802009
18023073
29543025
87811482
70398
3210282
14776254
20682
921
3865253
5769094
4495
57622
100486746
18529753
23157
2409
422873
213744
81960
118044
9407
3188198
655816
23363
138326585
12765
628501244
778170
14470
99793
264837
58884651
70579
2663
7903061
55001
93337
107024984
15238545
16641
190225
33045
488719457
84236
3740
151926916
61725
657961
2942
113394948
575185
228751
1858
682095
201683141
51450
1136329
960782
1862032
1027296823
4279
3879
1481
350637107
18341730
78923117
333753
1261862
794201321
17133512
8182240
132739
4734070
8744
518273116
1471
428582
78093
1138
4355
93304284
1255
3839311
19282
269102
9671
1952188
9447629
3600
10792
1074877
39437
1544563
45961345
2374
774105793
5380
9203
54905
778
2412
598892
590227
4284
1412919
11656124
44254
141518525
232221
859318
170738
178473
29828
30423068
5153792
2730
4707876
11337
124878
35645
223998952
23570481
108029995
1361722
16027740
818
60408
2879060
4697
6906823
101733
1836061223
528690
718237193
98629798
3757024
21408
3345378
28969
346004
20099284
40833
430
15692
19688
10913
5390
76634505
14682
789832
531397
625753282
57867886
220394
370650
208733933
1863440
309572
98735
2068
2212
149140
18175104
4580
66303
17935
6730349
304626
31499007
951
24781815
701485
17908
411894
11539
10050
8295
992369
52391928
17363
1993506997
20217374
27078
16448928
302321
8430478
734502581
916
4880
15328
957
1409063
499639
8412320
1606
1066
18912350
37859
5874
11149
44074
177526010
287123
197723
1620
11449
198665
303167570
15655
413164
949778
3368
1058177
7942440
510511
58460329
170517
50540
20689
532275
17100
222359
175014
20273
37033707
88925310
895797
19232
13495
7337978
492270
102932
5033774
1996676
28303
188394
25658
10963
16470
905324191
34101
233954746
40302
681674683
7591662
545189
32697012
29338
901586139
6152414
59911392
57611397
737003
16136
254049121
80379
35578
30631501
149073
1399575
5215
48622638
4286
12781936
720
627
522324
68968
2882616
482076
31449
492
3896370
189925
777780
14998190
10114
2678350
1501950743
2208603
128864
232677389
212101
4773
158573
181174284
4554764
7139438
18206293
604085093
372361
17174026
28101
10453
29506803
6662772
219623148
5860272
6967
236569
349981638
536461
8487950
1983
8992203
210388511
9897
57224
649212
88006
2146037
34805
4063656
251597
227348
147257
145822220
467143
54111
14644
160529
18932
22979
19534
64612
61558499
562
903153
6066172
622754182
12938280
80191
1073901
2058
21440
155669
4159
50191522
752
3824
10020
5483
42081
1004
33969868
68264
11518
1764332
532
1363
2168169
10073
89654
3871
88706
102393241
334562
21003
2349448
2842428
184658263
1073572
2635819
496077
152878
428
716617
254328
95926600
12659623
159868
37134701
406010177
76138
30130044
695567755
25770970
8646280
42098850
34393
29709
37070423
199352
10493
86640698
184890523
439614
8541
1186598
246540
15304
7757
340744
56704
308149
128876
74638
24251
283880
7334
10141
7923
2115082279
144093828
358821735
330976078
215860
45505650
27111
164047
666325929
1055
18801
9322
133320306
75377
817979573
218873
21413
17481
50147
2830
152693977
21381456
112120
10061654
160929876
3018674
419015
9741
571099
22554
15673
24100
49871
31459
114284
6706
14594537
8080
37410415
242624
125842
1529
52995
1902543101
22105638
18279362
186235
465171351
878
9144267
222937417
5205471
2892254
3924431
2355100
17166796
20150
61977494
3902996
699783
606669941
4001
211326
9689
19135
6397
2668
9656
3571
114034
448102
1727232
6907
31553
250987
9751548
20887
50724
160990
80016714
83382
896
229436
22983481
5176
3123228
31960
10693
1510294087
33503109
4545300
15798308
169041
147882
179928266
307524
7101
40334
4459840
1995
733
3485
122270895
40948
73163062
11263
2381106
6144164
63067
9478902
217361573
6580528
1550472
13209671
1382768903
16062
9804344
682446551
93198
6885
14824
654382
134680987
246
29914
85025
35062
6112
17615
1698690
363672
353306928
156992550
3836
300609852
152308
660930
13178462
18642
5031253
2864034
1927450
3966
603705899
1044201101
212254
20583
18339283
5747
1860976877
3611
16497
6624
3365480
52476
80850566
49851716
945764425
3092
36397
2448
275730
12354
2938604
81421
82758
42606981
62555618
24662
4711780
2030950813
266091
183734
391264933
27104855
3942066
102
41029984
357182602
1673
5552082
265142
1867879
9357
32175
1643711
218516
29347
48123961
26436
4941
13056
2041070
289132231
63906
110085
2803970
218502296
5550436
762220311
48659
2444266
271351
4486
8428
416643
23354
4592376
28905
3930649
9427
463622
52977
42735814
669834
614892
151631
7013443
7999
85794
45681
243563266
25118
152389889
509911011
3300334
8429
620664705
13501
104500
34349251
1770455
11849102
1478609893
575484563
589419931
414762
197155126
124806
2223574
21342061
273124
744649
1581
51796645
1674670
187818409
13396998
51065335
428712
33417
69495
59066
272437
30244
29575772
129697
470083
216130
28842
66724708
143606940
17059085
4876988
19249
610716
580012653
110913
327839
6826752
1610114153
383570
1557
14909000
138485492
20965849
21943
74083946
31982114
20153350
1318604
1273
2706322
9304194
1958
108275
32072
6792
14899137
19195415
385232628
35171341
489477
19838
4819102
625895
23574
30597442
61150058
33408055
5002450
1910196
1352631
1529765459
451
1354
27827802
7071
1838378233
186147
854129
40948943
986755315
17989748
1009687995
91747
757458
23479
21792
4339481
1742749
10812
7886
90829
81698
160264
2473
89935896
51349
38549985
149628
870587327
31076
25398
405263
2971
9363
370469
4530
38837
56492459
230078371
150898
3157724
151928822
284690
5440434
131963
72128
2144
2014144
53716
88941
90190
79497
274305
20161
1612546057
1218265
109939
528436904
44736
309927388
96223181
23326
8848
10602
432836
321076752
428026383
7325431
44899
1378540
2929
2471053
488160
42092
205188464
5891
8844
671279
4825584
342017
91808359
5837
655501
352392436
106515035
70800
417263
1637684849
2792030
52304653
2487
263293
223432
730983
1821605
745982
76380301
3251
988241
4323
139144
53501060
1211548763
564266
880030155
656333
737
661323
56126350
301
1990
148591
64502171
28444188
1082202
7867
41168038
435
920170
4484444
2702814
1276255753
2769
20277
18953060
1238278
18175
124933950
35439
125057563
2938
93577358
22002281
143674
183051275
7401
3967
14956148
43931192
1881757789
1005996
292697
2518
14941
3236719
105342
551284816
846492
31774059
885202
69863350
2165
1696182
42501
35516415
18726162
92467642
120871578
336086
2434
425143497
38551370
44196
160562
820572
1935264647
11724
641
12823
340107202
170889
273091
9890
1470522
8561
110726937
9818
15948306
22215
58707261
43367754
10865
102278
14664821
823869865
22002
121049
16801
14028008
451701
18397602
2112
1083620
10829
1020473
3194
1376
197642
1386
7881102
13015
33936
78422
320905
23819730
42504
22287
20152
1300006021
7724
170103
60183
1211
156453
7197
5174
1398890
2975968
4391
102325
19487
11301
297629
1370
131067
364189
12228906
2642304
5079272
7811
1856
9755
15784
114439
150379
92309503
25774433
589372
3568549
22027
856125889
3590912
15864278
41304
27119
109539
1345948
1297143
105371
687375
12545
4665
741316
223117
9809
79905
61100933
481795
152373498
44327
522218
56115269
12227
3176449
2348
109696935
1833104687
33379
42522840
3022
23420
194316384
40952
1825
12486005
3956151
45937
68325808
10253
28785
19491
189421
110845
2423
3876726
1904597
862033
64056678
120499293
4363
43107
42363
208268
981554
64643
116988
232853
1990
506417
65300
112975
371
4203
8919869
1257818417
188
710310945
107627
49598
6382
10049
48479253
23731
6293
1320187
57287
457
698082
130809
207262
170494
25442
67351318
21356
2827
614090
969117
1116465
1474143449
144840427
9545346
48306221
218900
88511963
3132869
22227
125653
209872069
6881992
34752345
798489
1245345
12919
143259388
244589
20643960
2920782
133967750
1865
328200
1240
565304
3063
123494023
2624264
11768525
61622
15504286
1862899979
1990642909
405025
145110
198422580
2290434
17686
55440044
81031
124801
520902
237
321141145
647
150257161
1059725
76609158
383079
1268912
3105
44101418
698237
243776
7399
65025963
8394
17172
31026
41873
60824
34275
52179
80597
6052664
79034021
26534
2586
80922
1038319749
474618099
1954685
2200013
7981
770
7063
60396
7685
59372011
16421
12340704
8970
17508298
249020509
53001
15872844
6823
6451819
30514740
28125449
30934
1862
31355564
213795
52067214
28626836
83710370
287906
1352198
9253138
2166
3711
46921
3176
1102553
149410066
5130
8769066
38149684
660661
11881364
151232958
672653
255535
72716
908488
3985
374599
9171
772595123
32180988
208003
22887
2124758443
163436
251363
2170
7971
3209
1144345
267755
78527732
479491253
373984493
3988681
52366901
1558
234883869
62455
2411986
534040
4161
3820380
769783991
18175390
676345
2204831
21802
1435443
23128
57420
321
2622588
293800725
32866651
1433264683
5128
3055982
26474516
8774607
175614
66054
25173
3954
206857499
10499
220447017
397719
1636381
146126916
20278408
4674
2584
963332179
639
71731
9819
11586
10396
10639
5702247
788
1080792
202676
1212402
91312
29867
1805
7060994
5057179
10423
448
200764426
202
5441
26343
1559
108525
8350634
439169
2559114
2072058811
26216
11571
370247908
54829
2852822
2379
1109130
906908
5734
3832856
76923076
694774
7451
9552524
22131
326501368
128043
24302
4558
2612890
1921526527
21240
8595656
24041611
657940
47279236
247800
1117
72758299
2433182
912927685
233566385
3454695
37307632
7793
756490
30105
6538
110554
596402
64678
134367
8952
41800714
56559
105457
102450
618817682
73491
1058204
6790
68106228
77302
4417
41717210
16011433
695411
59401
375836
1255858
37912959
28556209
16828
16313
18180
350
27622
24471
16343
219259856
6092817
14407
1340752
78504
2133584
304647
97029757
30070
220951
233646293
90197
5749
42564
2600
6117
510997
5295658
146385798
69670
1562278813
6662
59916771
87790372
151233
51720
13957
7860548
8479
15300751
1925
2094061201
192510
11072448
120326
1395308
10603
123126240
130983
218534181
229020257
11225
2299607
19817
120496
124149
19543
259360046
2243668
169444892
5306972
10459
1253908
7579
9994
67249
6216
833
750526
21303917
3063
34587
2115365117
3612751
479488
18807
3284
52375
1538475833
13330846
704109
1960207
45693
1642998527
218573
613804912
56332
675700
914845
261370122
37583
42609
133750268
1600
38185820
20384988
245443
1211158
165088179
3785488
690
4180780
576
2454
884597
1059816
3854
105186
2129368
37403503
35026
3984
908441503
32570
144416507
18313493
55868
72113
453945
359226437
16727238
310345669
9666
12459
42471758
241486475
652766960
322516768
166475
1145
39674
321965
1433590
2619
10716
1488
82428
1751
19520
41258346
188212
14921609
133289
776950
51442
733
11220776
334544404
219093
3673
1250
1982957
186851964
111640
890462929
5704723
8662
4904081
7114218
31247
12996
348616733
525840
377732
1090817
503918449
3825923
4967
160757964
445743941
859399
6558195
5226083
3350
4687085
25753
1580534
3591252
59841219
250974
795384853
1025430
33409
46947354
28012
2544538
75963
1860357
220660876
74830857
1731
71336
81726645
531254002
26626
7963998
13495
6525
601270850
859267141
386
25390551
417847
1314
42403561
4186588
42972808
9875
5119
9804
2414296
4595
76360
1487952
793548
46488952
46451
1448
51623
1396911
738528
232798
43755
2673
51850889
1104040
1746065
51904780
1155663
45580
514477160
2015340931
52613
101447
568671855
286892
201328
107391936
723420
4190098
21491
66700588
12869
708650
1026
8349279
19735235
199464828
198
888068
1080966
1322893
135379
91710395
551856
28392
225373429
1726
78511234
7579429
772159
1950
26402
60836
883
28939
5291
228590953
1292084753
872
3252597
3917668
126174582
4320
281947
6923
4294
2829574
7509247
81110
145737287
923
40643
112440
10679
48908965
3663933
172138
5330
110115760
14500635
7159814
15439
4117
623931
19838618
113727
51608289
18544941
41735
8803
138256
1677702
1682274
11286
659650
3475
278205125
197362008
249685905
216051
26076673
27279
15985
463011
252724069
246690
104256
811
22891
490337
13735
701880
4624206
97026
7157905
106388992
10051964
2453501
72059298
97472
193697
77502
11692
21744347
122646558
123933
1584183
1050328031
149104576
26640980
755761219
2369270
304961
2575770
251973
1868475
26222355
226464
1826
3924619
603765
3651939
53479
990075
382
1271977
1631951
93673
465444391
1679
1188520
18126
57591828
547832773
623
102411
680409
247331
510514099
40795
3526
1266275317
42792584
6095
3012366
6803
304415
294912804
643747499
2873812
70377
1193
7889
145831
57130949
8642
1665
3153
16917
3574
12568
259056
4403
13294
392670
1810653
811068
1878337381
55774
10803
168006
2431337
635913
3517178
602838
151285
5769
2891
1053
1945
58243354
400264
15967288
3122
87913
3980
500652589
105932705
109650526
2522
4866257
162717
9399
4918802
7432500
72650946
240073
976
1225
15351
93710098
1797274571
45764820
7321
36888
56152
89271
152491055
5638
3982
6629
1692
657123587
4264
375906672
344621
18399
3230
25984
249933221
290190602
12594
251220
790774
10562
240474626
12319989
124367
5884946
20788
63815
6763
254953249
8445
21063
42382
173751
2733
97757
682721701
5364
44361150
706518751
1036674
36036
10505496
16645
7319
405938
166243
56010
1050
1278936
10555
67598
488714176
26438
11156672
17210
62890557
527514
25234931
31772755
40728966
1641243437
315438993
18945
417335
53348
457081
197621
385027
2863528
572218316
494477
132641
86976
999148
157472
7607468
323015
24957
112803
23979
7582254
157910
272754
52139
1060155611
99863
363231
74514
290757
424721
144520
461606
15628096
3372495
101352711
17257
77449659
911953995
1303462
2926145
7960470
166816215
521437
26024
150590
4042476
4885500
1833
600282
1079
8769673
57871910
1484000957
118436
69657
25196
35526
294008
8550
28806992
30163
56605521
2165695
5169
52406216
2822
88745
483832
345015670
165056
45895122
2607
128507
123146884
5024
577521883
290136524
87791
3722
4032225
5661
72601
14918
1578776293
33877
42802
129031
11427487
446786972
7166
62573367
58610486
997915
20524570
64565
126836
5022629
36946
2192095
86488480
1264
823176
1491481219
356525
284483
17029
2513587
964864
170626650
2206
592758920
135791
38483671
106050400
28384
78985586
5274
226177
36274
48252
456918
81390
136794
274738
12370
1381237
73815
24912
12795493
45284
5004
497304963
53360
122753
68646
13938745
177839731
28357380
2229
180480
617
544824
134208400
7605
96103
2644304
352805936
3982003
217837751
4125171
32189
4459768
276330
9527024
95027370
131793
5497
12063244
213938
15010345
30094415
134511
19704
60870
1575778
36626
3387327
39075486
1433496
89692
3219
3193
112189
36345
157581
62427
7834554
288447
4432396
213634360
22428
560124
25071
121089
16214
100992172
704956
3865
244629337
2241
59029222
718675
5108318
93935218
51465278
15927487
28435
348
1855
26485
19240
3949
106381
374837
1678663843
3994
222937938
5774
196375
74461
4104507
2866763
5716
2401
10557
254166
9662725
30949
26782839
476277229
794901405
312785
53318
18281049
13733
7320
129387
5427
15967952
14110570
46474
467764
495374
210462
48101047
7657016
52257238
114667
340539
506190
26394876
6747
3219
899606317
962388913
23569
38810802
8975
971675
17300256
341891
3760
15637252
11668
9154
160164
7292
116041
52971988
523763
48712
85683
1336480
202588458
42485
7830
592042
929
849127459
1874219401
103440270
186
28517
18859782
1215828143
20394125
470438
482897644
536185921
3823
6308494
82642
292503
172030933
4291494
1126102207
1942
3840111
11784
7851
2039
4050170
32429060
171496
202298121
6453
2214
28055
1036
934678
15303
63404
427570
19564
186398929
431111
1770692419
100870
142133
695580607
191756
2430
9078
44750257
104924
218630062
1667905
7783657
4133
3172586
2059083
2036
3649
48163
310634
568858024
627122
4072860
191429875
50759
3169696
135379955
1974802253
29213939
2849
16468
38600
30041
3484
297258
67049
2399
13400000
2595585
1897451771
393732094
4782
1621240
18052598
18730614
22156242
129640
153585544
727574
1202141
1872058
34261147
6906107
1171
13267
10734211
1597822
26690
1102970
13893
45298
9126
56647
611954
18044
9801344
83628
89367045
658373
94713308
12187
1546
123988
835761
57004
7166
13228
3732
3017592
1307
4401
1018138
6575472
59863254
17540450
238736
749
61090
16135650
2195662
30901887
3590
20893
90776
864220
4651
23491
33431
378332851
8280
843529
968806
643027
9135443
146376
2635420
14077770
3762
58227
9707
4859
4995
6523788
238303
80988426
304622181
82682074
9636
191766085
936216943
227448253
532535
30220
204518533
34916
472378
249010
150910181
3506
1715
231953171
39712816
138032
109204
4186056
742292
4485
851452
102112
17767729
381956
75130
167667324
10330
9308762
3216
5167906
915054757
1085545
87485098
1851271699
1106
8519914
97019
140568896
110694
1042
1813
1096122
7352265
74854
5665388
128340138
176054262
1262
4185
6311
80246
214626
1861959
56565
12963054
18963794
88677396
9319
10978
479276
241622879
1239955837
30717857
133809
4581386
309481978
37011
21193408
6619142
498002
11184
4886998
64234576
83493908
11905433
1518
381170
4396594
908316325
61453429
2117112
235172
37543282
3242558
38046
240435834
164825
67894128
8627391
613945599
17778
66845
407723
11957
71551999
632053635
74602
330536
3088
121899
14513660
447160331
161478
25043862
1212854
124239
96319
398129
5066
233969
52379
78176749
75444144
499035
1214
624546
8324819
1257218
3881
972627991
348180213
2517263
202712
5466293
5160
1744
133347419
1987708
159539
33962
21068
326582458
139852
1787
357
2145392167
8997
394152919
25096326
102459827
96572
61015
27949
9860354
865639403
31305
44148384
389376
271087422
12482188
814244
420
17228
7572
36428
261603
18343
3808865
764
37475
8636
1046540899
5673116
2119
476
1359991441
53753
2766801
4309985
35349
59795
332286
73438625
3703
717572
4048126
120501951
467516774
170869
10981954
4684
184862560
136449913
41590717
670566
49206490
1047569
20781450
52854
52829
121814
4433478
16825
30045290
73383
6888
42093
7093
2406
337917
6976
130105847
2790628
178234
3241
1479214
162
5703
5323524
5186169
1323704
3369421
24308
10776
2299
8853369
4141
137541427
1313937
62316
5432426
1251935
1163123
1166770859
822
229461
9433
12011
224811577
2009808
103346
2417
554
93997
508124039
317435650
491
1123960
3833
632116
37231
70360
497982
59625
91879206
1423853
11591
8986025
2561848
214
6905
1608295
2024034
5913132
74142
59180916
5193
302988343
1019732005
37397
48026578
19279438
1261412
56513
1044932431
4457984
9564
21563
551124309
45015
11534130
10005
803568593
49581
101581
517548
4084450
81944
2826149
4711
1912766
325852
963
1814
7493850
59539
37242881
9094
20519
168211086
407611
509938
188038
1773
1461225067
1931054681
2730
171742018
2910223
565904293
36385
109137
14961511
4006
11100
19302840
16924422
65483
4166
2383835
7089
1271
552392
4881539
16117
127581
353087829
824
41526321
112321
8149
10507
47802406
167752
7427992
16335338
9210
21733
377
206236
7222
4415
1487
11538093
4510
35482923
11923
1148573311
5426
33155
1098843341
43541756
65724243
8030590
6231033
125658
1436
257267
1575083137
8512
1001112
78278458
1194
2282
13688
3461
1859215
358434
1476281
43224353
8231402
6518
1927017923
982648
22601267
1448012
601
78526887
1010443129
4053800
162700
68041530
1966766
34728508
301603
295594
22774
3258
12706964
7541592
72259
6210
136411
4136
20386
694
1997178
467698
14369
24143
5715
86353
536648
14393
192418
90207
885
4066188
90933
786843
167628404
394740183
799335
17471
62596638
1185822991
2273
292507388
29594
18621
13497
1008
117682310
95062094
477039
2332
38533
27988882
4616
450697
1570
417903004
410440777
33897
75526
5433
25631
3914423
929427
243973
5367
77044
31948154
4208074
157942
356
680
8188
90472
1135758
1847236
314
168492106
424940523
7872154
1300150
12267
15624907
506223499
4778727
499749
137958
18739195
2880406
5006595
845310
1162764
744
7785486
65310089
229405
2479
617910705
899458891
157033
601859
15422717
43284
105141
1192358
1048714
3864
4071466
172809455
474105999
773300
114417
18706965
24873
862
48255640
88485778
15530700
4886149
4324719
691695
23569816
762205
10340016
76069
931
6139
67663
73831
197423
2096500
4742908
35374
339
6290416
341435751
1842
573
10658542
1511934727
1769843
1279898
455
2229
205935
1080114
6233
29491
2732
261867
666933
37912
745
272770
20431655
4105248
3643
3537780
763878
11278386
10148
485903
894216
497974579
164416074
2003921977
3356
602397782
2702231
38973
234328888
71979
210585963
81222
13451
711350
1709
578995
73079236
10061
399977
846
26928
84563240
157706
1408620
27796985
99413
502683
45817892
92273442
27805
1434930479
4931
256634
866992
7098
2973055
56170
5476365
285205714
1918937
3322
19872
1528
1832868
6791
96308
50762543
16164833
533509
233896
76708166
151092
2160897
514261162
163652869
16044756
63069
929
26353
620
99878
58324399
690
588
1655114
28885174
570487
63441
734468173
9890
2300
28116
14478
4799
679452
14759002
473559
2582
2075886
48759
8538070
1310889067
65638
1035952769
6140801
4059169
15337996
2647153
5454
1007156
101332852
2482262
1243139
273107406
55983
5913
7291
129819244
421097764
7042192
111033810
12223
1782
296960
1381306961
317325
855969
455599
2634672
3909
89390
1582
976468261
262281590
4507302
1280642
11963
2906
23926
11215348
30579244
361152
998
6358460
1656220
32770
12825
101438794
26842014
2350
651369731
81089
6712390
125884460
7015
41505210
1551558
109951
488089
65946
5933926
8453
4082996
40428
1466143
42304
9046443
42660738
28332
1219
140851
635
1506151937
190915
31687943
334683996
1298250
71278
322846
1658534
82714
1839505
14178361
1273
328131219
19456032
3516430
535
1727
12759532
4960321
3707
61774
5057
9386
220594
1396981661
1818
215885
443932
110212
274252
1537834037
5407
15166
69618
305163
804356831
236883
100330933
18968
127026
6742
947498
8385
903197
17293
14201280
31664
222958
2094
3254
2007179
50272
4795460
86081
1252
16575
1904
973862
13390
9217167
128204
102680
211698408
15712
15198
21882679
46979
528
335176596
13080
37174
76821914
209916
2603955
68675444
4323
167
262657395
403657632
10429784
36184
6205517
3182191
90475
2752
101636
37632688
10377
2204128
1561037227
12636
3853
28603504
47601
733947
16049372
142837105
84450
6821
74861
6514064
16613
367968199
4607
14697170
9512494
99463692
429371128
463187551
31125998
2840333
23612
774157
1673
2126980
2555042
4348
204094
1535
707943829
11628
238769862
1288328
22066056
974989
7136
1168
1493400
1427
3326646
1239730
355216
298073
3230166
2019459
137252
5480
16275182
3257
68377907
55393
879
932166
96038617
72963
297610
18755
2592679
37034
977
1006106
78247605
662
15704844
759543
4944125
45536
18765
10921294
592
594
29674
437356
6185
64310
6377
1354
1237539
213
503984
4003
39211974
93228576
392279
19860
132142228
35590
743
17271760
457126250
7838077
38096
5843
1840275
49333
1096
16006361
3757356
9749
2093
17121815
115987
106747
57169
227706
3540
348
2100
13083
8815
6106701
13973
1093
11380
428197097
2667043
27849
691404753
7214794
94672049
1345295
303390472
22889519
7977235
1175168989
2505192
3675
30830
243684
14157
119872
42198743
2412254
939284085
26344168
6232
32583
1974572687
1013
379605
21234011
1611
62663801
304520863
15770
9690
6849370
20401239
1777657
1508958379
60270
3109
33887
752508669
22118
2364104
293250
215654347
44474
203629
606068
163960763
236011826
4162
76690
231739
408520
1707426
609486
5265758
3975083
67503610
313079551
262185
15226
15319
18156724
342527354
69797
13855
5479744
27339478
2430
110117158
8439675
3678153
52687962
1174
1023
189347622
34117805
65392
20330
8598838
11578
19755114
11413
8746
961719
2179623
58458
587937
563
11704900
126711
1100997
53637
37561816
13749
458049285
1119993
1502395
735621
137525
4721235
18789
17298504
7652161
27314353
776536
337614294
84539613
17756
8219
606140
61470914
817367955
550
5026
6249
1428
240
108519
17907
5395
1257512
1930
1634
6706740
61180347
2678
7033819
5268
230772
533
2726438
173860
7737217
342409
24306
1607
6936
14905
10396182
653
885145
4481602
27008
16203486
17344
1002
80739
53587
210392417
1941
4283
2626
