7243
11094
674
32006
329
10508
10197
320
3324
1300
235
185
816
66601
70
19815
2530
111
572
2283
82
9279
53
1124
202
2382
2342
93851
48
78049
69
302
7958
2345
4409
135
8294
1700
1230
1071
3484
772
962
86
273
1212
185
9549
11724
71
34
3059
213
436
32
1581
16276
146
44
130
1298
484
1935
9537
738
1740
704
78737
597
3328
140
1106
1710
85
72
71011
86587
1169
281
2722
156
174
3102
9927
32
59
951
4102
331
28439
9491
1198
274
2466
144
313
111
377
56843
4469
