98
4
18
98
83
43
86
96
69
62
21
11
10
3
59
56
29
97
76
32
24
57
69
8
60
35
12
24
34
52
49
82
7
66
80
90
60
17
85
28
79
5
91
40
59
49
95
88
97
23
71
20
79
39
27
39
25
38
14
59
42
62
40
48
79
19
37
90
36
21
69
66
77
59
5
36
59
51
75
55
73
45
75
4
35
53
94
60
43
7
70
84
20
9
31
50
80
20
39
